^E:\DROPBOX\HOMEPAGE\HUGO\CODES\CODE_TMP\CODE_RELEASE\DEMO\STDAFX.CPP
E:\DROPBOX\HOMEPAGE\HUGO\CODES\CODE_TMP\CODE_RELEASE\DEMO\X64\RELEASE\DEMO.PCH
E:\DROPBOX\HOMEPAGE\HUGO\CODES\CODE_TMP\CODE_RELEASE\DEMO\X64\RELEASE\VC141.PDB
E:\DROPBOX\HOMEPAGE\HUGO\CODES\CODE_TMP\CODE_RELEASE\DEMO\X64\RELEASE\STDAFX.OBJ
^E:\DROPBOX\HOMEPAGE\HUGO\CODES\CODE_TMP\CODE_RELEASE\DEMO\MAIN.CPP
E:\DROPBOX\HOMEPAGE\HUGO\CODES\CODE_TMP\CODE_RELEASE\DEMO\X64\RELEASE\VC141.PDB
E:\DROPBOX\HOMEPAGE\HUGO\CODES\CODE_TMP\CODE_RELEASE\DEMO\X64\RELEASE\MAIN.OBJ
