^E:\Dropbox\homepage\Hugo\codes\code_tmp\Code_release\MSMV\MSMV.vcxproj
E:\Dropbox\homepage\Hugo\codes\code_tmp\Code_release\x64\Release\Demo.ipdb
E:\Dropbox\homepage\Hugo\codes\code_tmp\Code_release\x64\Release\Demo.iobj
^E:\Dropbox\homepage\Hugo\codes\code_tmp\Code_release\Demo\Demo.vcxproj
E:\Dropbox\homepage\Hugo\codes\code_tmp\Code_release\x64\Release\Demo.ipdb
E:\Dropbox\homepage\Hugo\codes\code_tmp\Code_release\x64\Release\Demo.iobj
